{
  "health-member": [
    {
      "id": 1663578912655,
      "name": "Thejaswin",
      "age": 22,
      "email": "Thejaswin.K@in.ey.com",
      "mobile": 9003554928,
      "address1": "Salem",
      "address2": "Bangalore",
      "city": "BLR",
      "state": "TN",
      "country": "India",
      "pincode": 7777,
      "trainer": "female",
      "physio": "yes",
      "package": "package3",
      "weeks": "1",
      "amount": 1700
    },
    {
      "id": 1663580153846,
      "name": "Diksha",
      "age": 50,
      "email": "diksha@gmail.com",
      "mobile": 98989888,
      "address1": "Nagpur",
      "address2": "Nagpur",
      "city": "BLR",
      "state": "TN",
      "country": "India",
      "pincode": 98765,
      "trainer": "male",
      "physio": "yes",
      "package": "package3",
      "weeks": "1",
      "amount": 1700
    }
  ],
  "query": [
    {
      "name": "Thejaswin",
      "email": "r.k.thejaswin",
      "phno": 9003554928,
      "query": "I want Six Packs"
    },
    {
      "id": 1663583268865,
      "name": "Diksha",
      "email": "diksha.K@in.ey.com",
      "phno": 9083554928,
      "query": "How much is the Fees"
    }
  ]
}